Data Frames
…
First let’s load those packages.

library(readr)
library(dplyr)

If you see a warning that looks like this: Error in library(packageName) : there is no package called 'packageName', then you don’t have the package installed correctly. See the setup page.

read_csv()

Now, let’s actually load the data. You can get help for the import function with ?read_csv. When we load data we assign it to a variable just like any other, and we can choose a name for that data. Since we’re going to be referring to this data a lot, let’s give it a short easy name to type. I’m going to call it ydat. Once we’ve loaded it we can type the name of the object itself (ydat) to see it printed to the screen.

ydat <- read_csv(file="data/brauer2007_tidy.csv")
ydat

## # A tibble: 198,430 x 7
##    symbol systematic_name nutrient  rate expression bp                               mf                                               
##    <chr>  <chr>           <chr>    <dbl>      <dbl> <chr>                            <chr>                                            
##  1 SFB2   YNL049C         Glucose   0.05      -0.24 ER to Golgi transport            molecular function unknown                       
##  2 <NA>   YNL095C         Glucose   0.05       0.28 biological process unknown       molecular function unknown                       
##  3 QRI7   YDL104C         Glucose   0.05      -0.02 proteolysis and peptidolysis     metalloendopeptidase activity                    
##  4 CFT2   YLR115W         Glucose   0.05      -0.33 mRNA polyadenylylation*          RNA binding                                      
##  5 SSO2   YMR183C         Glucose   0.05       0.05 vesicle fusion*                  t-SNARE activity                                 
##  6 PSP2   YML017W         Glucose   0.05      -0.69 biological process unknown       molecular function unknown                       
##  7 RIB2   YOL066C         Glucose   0.05      -0.55 riboflavin biosynthesis          pseudouridylate synthase activity*               
##  8 VMA13  YPR036W         Glucose   0.05      -0.75 vacuolar acidification           hydrogen-transporting ATPase activity, rotationa…
##  9 EDC3   YEL015W         Glucose   0.05      -0.24 deadenylylation-independent dec… molecular function unknown                       
## 10 VPS5   YOR069W         Glucose   0.05      -0.16 protein retention in Golgi*      protein transporter activity                     
## # … with 198,420 more rows
…
