Advanced Data Visualization Homework
…
# Preferably read data from the web
#ydat <- read_csv("http://bioconnector.org/workshops/data/brauer2007_tidy.csv")

# Alternatively read data from file
ydat <- read_csv("data/brauer2007_tidy.csv")

# Display the data
ydat

## # A tibble: 198,430 x 7
##    symbol systematic_name nutrient  rate expression bp                               mf                                               
##    <chr>  <chr>           <chr>    <dbl>      <dbl> <chr>                            <chr>                                            
##  1 SFB2   YNL049C         Glucose   0.05      -0.24 ER to Golgi transport            molecular function unknown                       
##  2 <NA>   YNL095C         Glucose   0.05       0.28 biological process unknown       molecular function unknown                       
##  3 QRI7   YDL104C         Glucose   0.05      -0.02 proteolysis and peptidolysis     metalloendopeptidase activity                    
##  4 CFT2   YLR115W         Glucose   0.05      -0.33 mRNA polyadenylylation*          RNA binding                                      
##  5 SSO2   YMR183C         Glucose   0.05       0.05 vesicle fusion*                  t-SNARE activity                                 
##  6 PSP2   YML017W         Glucose   0.05      -0.69 biological process unknown       molecular function unknown                       
##  7 RIB2   YOL066C         Glucose   0.05      -0.55 riboflavin biosynthesis          pseudouridylate synthase activity*               
##  8 VMA13  YPR036W         Glucose   0.05      -0.75 vacuolar acidification           hydrogen-transporting ATPase activity, rotationa…
##  9 EDC3   YEL015W         Glucose   0.05      -0.24 deadenylylation-independent dec… molecular function unknown                       
## 10 VPS5   YOR069W         Glucose   0.05      -0.16 protein retention in Golgi*      protein transporter activity                     
## # … with 198,420 more rows
…
